{
  "files": {
    "static/css/0.3c515868.chunk.css": "/docs/static/css/0.3c515868.chunk.css",
    "static/js/0.b01b3412.chunk.js": "/docs/static/js/0.b01b3412.chunk.js",
    "static/js/0.b01b3412.chunk.js.map": "/docs/static/js/0.b01b3412.chunk.js.map",
    "static/js/1.1d9ce507.chunk.js": "/docs/static/js/1.1d9ce507.chunk.js",
    "static/js/1.1d9ce507.chunk.js.map": "/docs/static/js/1.1d9ce507.chunk.js.map",
    "static/js/2.ee92d583.chunk.js": "/docs/static/js/2.ee92d583.chunk.js",
    "static/js/2.ee92d583.chunk.js.map": "/docs/static/js/2.ee92d583.chunk.js.map",
    "static/js/3.aa86a29a.chunk.js": "/docs/static/js/3.aa86a29a.chunk.js",
    "static/js/3.aa86a29a.chunk.js.map": "/docs/static/js/3.aa86a29a.chunk.js.map",
    "static/js/4.95456733.chunk.js": "/docs/static/js/4.95456733.chunk.js",
    "static/js/4.95456733.chunk.js.map": "/docs/static/js/4.95456733.chunk.js.map",
    "static/css/5.85f19f90.chunk.css": "/docs/static/css/5.85f19f90.chunk.css",
    "static/js/5.80df9cd9.chunk.js": "/docs/static/js/5.80df9cd9.chunk.js",
    "static/js/5.80df9cd9.chunk.js.map": "/docs/static/js/5.80df9cd9.chunk.js.map",
    "static/js/6.9010b0aa.chunk.js": "/docs/static/js/6.9010b0aa.chunk.js",
    "static/js/6.9010b0aa.chunk.js.map": "/docs/static/js/6.9010b0aa.chunk.js.map",
    "static/js/7.23ba8b65.chunk.js": "/docs/static/js/7.23ba8b65.chunk.js",
    "static/js/7.23ba8b65.chunk.js.map": "/docs/static/js/7.23ba8b65.chunk.js.map",
    "static/js/8.8d793c84.chunk.js": "/docs/static/js/8.8d793c84.chunk.js",
    "static/js/8.8d793c84.chunk.js.map": "/docs/static/js/8.8d793c84.chunk.js.map",
    "static/js/9.5ac3ae2f.chunk.js": "/docs/static/js/9.5ac3ae2f.chunk.js",
    "static/js/9.5ac3ae2f.chunk.js.map": "/docs/static/js/9.5ac3ae2f.chunk.js.map",
    "main.css": "/docs/static/css/main.3d838d8c.chunk.css",
    "main.js": "/docs/static/js/main.84ad8969.chunk.js",
    "main.js.map": "/docs/static/js/main.84ad8969.chunk.js.map",
    "runtime-main.js": "/docs/static/js/runtime-main.9ab55d8c.js",
    "runtime-main.js.map": "/docs/static/js/runtime-main.9ab55d8c.js.map",
    "static/css/12.60bf5429.chunk.css": "/docs/static/css/12.60bf5429.chunk.css",
    "static/js/12.a3bae0f5.chunk.js": "/docs/static/js/12.a3bae0f5.chunk.js",
    "static/js/12.a3bae0f5.chunk.js.map": "/docs/static/js/12.a3bae0f5.chunk.js.map",
    "static/js/13.9c346d86.chunk.js": "/docs/static/js/13.9c346d86.chunk.js",
    "static/js/13.9c346d86.chunk.js.map": "/docs/static/js/13.9c346d86.chunk.js.map",
    "static/js/14.a398a0ee.chunk.js": "/docs/static/js/14.a398a0ee.chunk.js",
    "static/js/14.a398a0ee.chunk.js.map": "/docs/static/js/14.a398a0ee.chunk.js.map",
    "static/js/15.64862ffd.chunk.js": "/docs/static/js/15.64862ffd.chunk.js",
    "static/js/15.64862ffd.chunk.js.map": "/docs/static/js/15.64862ffd.chunk.js.map",
    "static/js/16.b2fa8ab0.chunk.js": "/docs/static/js/16.b2fa8ab0.chunk.js",
    "static/js/16.b2fa8ab0.chunk.js.map": "/docs/static/js/16.b2fa8ab0.chunk.js.map",
    "static/js/17.cfbf7d6a.chunk.js": "/docs/static/js/17.cfbf7d6a.chunk.js",
    "static/js/17.cfbf7d6a.chunk.js.map": "/docs/static/js/17.cfbf7d6a.chunk.js.map",
    "static/js/18.670f138a.chunk.js": "/docs/static/js/18.670f138a.chunk.js",
    "static/js/18.670f138a.chunk.js.map": "/docs/static/js/18.670f138a.chunk.js.map",
    "static/js/19.3a3bb80c.chunk.js": "/docs/static/js/19.3a3bb80c.chunk.js",
    "static/js/19.3a3bb80c.chunk.js.map": "/docs/static/js/19.3a3bb80c.chunk.js.map",
    "static/js/20.2eb447d1.chunk.js": "/docs/static/js/20.2eb447d1.chunk.js",
    "static/js/20.2eb447d1.chunk.js.map": "/docs/static/js/20.2eb447d1.chunk.js.map",
    "static/js/21.afb43f87.chunk.js": "/docs/static/js/21.afb43f87.chunk.js",
    "static/js/21.afb43f87.chunk.js.map": "/docs/static/js/21.afb43f87.chunk.js.map",
    "static/css/22.fef88085.chunk.css": "/docs/static/css/22.fef88085.chunk.css",
    "static/js/22.f9fc9bcf.chunk.js": "/docs/static/js/22.f9fc9bcf.chunk.js",
    "static/js/22.f9fc9bcf.chunk.js.map": "/docs/static/js/22.f9fc9bcf.chunk.js.map",
    "static/js/23.bc24722e.chunk.js": "/docs/static/js/23.bc24722e.chunk.js",
    "static/js/23.bc24722e.chunk.js.map": "/docs/static/js/23.bc24722e.chunk.js.map",
    "static/js/24.a852d631.chunk.js": "/docs/static/js/24.a852d631.chunk.js",
    "static/js/24.a852d631.chunk.js.map": "/docs/static/js/24.a852d631.chunk.js.map",
    "static/js/25.d324ddbb.chunk.js": "/docs/static/js/25.d324ddbb.chunk.js",
    "static/js/25.d324ddbb.chunk.js.map": "/docs/static/js/25.d324ddbb.chunk.js.map",
    "static/js/26.c12107ab.chunk.js": "/docs/static/js/26.c12107ab.chunk.js",
    "static/js/26.c12107ab.chunk.js.map": "/docs/static/js/26.c12107ab.chunk.js.map",
    "static/js/27.6dd59835.chunk.js": "/docs/static/js/27.6dd59835.chunk.js",
    "static/js/27.6dd59835.chunk.js.map": "/docs/static/js/27.6dd59835.chunk.js.map",
    "static/js/28.7dc02969.chunk.js": "/docs/static/js/28.7dc02969.chunk.js",
    "static/js/28.7dc02969.chunk.js.map": "/docs/static/js/28.7dc02969.chunk.js.map",
    "static/js/29.3303ac3e.chunk.js": "/docs/static/js/29.3303ac3e.chunk.js",
    "static/js/29.3303ac3e.chunk.js.map": "/docs/static/js/29.3303ac3e.chunk.js.map",
    "static/js/30.44162788.chunk.js": "/docs/static/js/30.44162788.chunk.js",
    "static/js/30.44162788.chunk.js.map": "/docs/static/js/30.44162788.chunk.js.map",
    "static/js/31.7fba5724.chunk.js": "/docs/static/js/31.7fba5724.chunk.js",
    "static/js/31.7fba5724.chunk.js.map": "/docs/static/js/31.7fba5724.chunk.js.map",
    "static/js/32.15729895.chunk.js": "/docs/static/js/32.15729895.chunk.js",
    "static/js/32.15729895.chunk.js.map": "/docs/static/js/32.15729895.chunk.js.map",
    "static/js/33.ee2602c8.chunk.js": "/docs/static/js/33.ee2602c8.chunk.js",
    "static/js/33.ee2602c8.chunk.js.map": "/docs/static/js/33.ee2602c8.chunk.js.map",
    "static/js/34.8bd96ed8.chunk.js": "/docs/static/js/34.8bd96ed8.chunk.js",
    "static/js/34.8bd96ed8.chunk.js.map": "/docs/static/js/34.8bd96ed8.chunk.js.map",
    "static/js/35.de09deae.chunk.js": "/docs/static/js/35.de09deae.chunk.js",
    "static/js/35.de09deae.chunk.js.map": "/docs/static/js/35.de09deae.chunk.js.map",
    "static/js/36.e726eb25.chunk.js": "/docs/static/js/36.e726eb25.chunk.js",
    "static/js/36.e726eb25.chunk.js.map": "/docs/static/js/36.e726eb25.chunk.js.map",
    "static/js/37.5f816adb.chunk.js": "/docs/static/js/37.5f816adb.chunk.js",
    "static/js/37.5f816adb.chunk.js.map": "/docs/static/js/37.5f816adb.chunk.js.map",
    "static/js/38.aac1cb1b.chunk.js": "/docs/static/js/38.aac1cb1b.chunk.js",
    "static/js/38.aac1cb1b.chunk.js.map": "/docs/static/js/38.aac1cb1b.chunk.js.map",
    "static/js/39.fde094f8.chunk.js": "/docs/static/js/39.fde094f8.chunk.js",
    "static/js/39.fde094f8.chunk.js.map": "/docs/static/js/39.fde094f8.chunk.js.map",
    "static/js/40.18bbbe9b.chunk.js": "/docs/static/js/40.18bbbe9b.chunk.js",
    "static/js/40.18bbbe9b.chunk.js.map": "/docs/static/js/40.18bbbe9b.chunk.js.map",
    "static/js/41.02603d4c.chunk.js": "/docs/static/js/41.02603d4c.chunk.js",
    "static/js/41.02603d4c.chunk.js.map": "/docs/static/js/41.02603d4c.chunk.js.map",
    "static/js/42.0c20377c.chunk.js": "/docs/static/js/42.0c20377c.chunk.js",
    "static/js/42.0c20377c.chunk.js.map": "/docs/static/js/42.0c20377c.chunk.js.map",
    "index.html": "/docs/index.html",
    "precache-manifest.c8866049cc70cde8636be1bfd318f1f3.js": "/docs/precache-manifest.c8866049cc70cde8636be1bfd318f1f3.js",
    "service-worker.js": "/docs/service-worker.js",
    "static/css/0.3c515868.chunk.css.map": "/docs/static/css/0.3c515868.chunk.css.map",
    "static/css/12.60bf5429.chunk.css.map": "/docs/static/css/12.60bf5429.chunk.css.map",
    "static/css/22.fef88085.chunk.css.map": "/docs/static/css/22.fef88085.chunk.css.map",
    "static/css/5.85f19f90.chunk.css.map": "/docs/static/css/5.85f19f90.chunk.css.map",
    "static/css/main.3d838d8c.chunk.css.map": "/docs/static/css/main.3d838d8c.chunk.css.map",
    "static/js/0.b01b3412.chunk.js.LICENSE.txt": "/docs/static/js/0.b01b3412.chunk.js.LICENSE.txt",
    "static/js/1.1d9ce507.chunk.js.LICENSE.txt": "/docs/static/js/1.1d9ce507.chunk.js.LICENSE.txt",
    "static/js/12.a3bae0f5.chunk.js.LICENSE.txt": "/docs/static/js/12.a3bae0f5.chunk.js.LICENSE.txt",
    "static/js/13.9c346d86.chunk.js.LICENSE.txt": "/docs/static/js/13.9c346d86.chunk.js.LICENSE.txt",
    "static/js/14.a398a0ee.chunk.js.LICENSE.txt": "/docs/static/js/14.a398a0ee.chunk.js.LICENSE.txt",
    "static/js/15.64862ffd.chunk.js.LICENSE.txt": "/docs/static/js/15.64862ffd.chunk.js.LICENSE.txt",
    "static/js/16.b2fa8ab0.chunk.js.LICENSE.txt": "/docs/static/js/16.b2fa8ab0.chunk.js.LICENSE.txt",
    "static/js/17.cfbf7d6a.chunk.js.LICENSE.txt": "/docs/static/js/17.cfbf7d6a.chunk.js.LICENSE.txt",
    "static/js/18.670f138a.chunk.js.LICENSE.txt": "/docs/static/js/18.670f138a.chunk.js.LICENSE.txt",
    "static/js/2.ee92d583.chunk.js.LICENSE.txt": "/docs/static/js/2.ee92d583.chunk.js.LICENSE.txt",
    "static/js/4.95456733.chunk.js.LICENSE.txt": "/docs/static/js/4.95456733.chunk.js.LICENSE.txt",
    "static/js/5.80df9cd9.chunk.js.LICENSE.txt": "/docs/static/js/5.80df9cd9.chunk.js.LICENSE.txt",
    "static/media/App.scss": "/docs/static/media/zw.8b885465.svg",
    "static/media/font-awesome.min.css": "/docs/static/media/fontawesome-webfont.fee66e71.woff",
    "static/media/sygnet.svg": "/docs/static/media/sygnet.c8d5c2d9.svg"
  },
  "entrypoints": [
    "static/js/runtime-main.9ab55d8c.js",
    "static/css/12.60bf5429.chunk.css",
    "static/js/12.a3bae0f5.chunk.js",
    "static/css/main.3d838d8c.chunk.css",
    "static/js/main.84ad8969.chunk.js"
  ]
}