{
  "files": {
    "main.css": "/portal/static/css/main.9acade5a.chunk.css",
    "main.js": "/portal/static/js/main.a28fdbd3.chunk.js",
    "main.js.map": "/portal/static/js/main.a28fdbd3.chunk.js.map",
    "runtime-main.js": "/portal/static/js/runtime-main.9c0d1b2d.js",
    "runtime-main.js.map": "/portal/static/js/runtime-main.9c0d1b2d.js.map",
    "static/css/2.13ea18da.chunk.css": "/portal/static/css/2.13ea18da.chunk.css",
    "static/js/2.1d883acc.chunk.js": "/portal/static/js/2.1d883acc.chunk.js",
    "static/js/2.1d883acc.chunk.js.map": "/portal/static/js/2.1d883acc.chunk.js.map",
    "index.html": "/portal/index.html",
    "precache-manifest.77b4bd1331ba05bec15d2bdd89165dc0.js": "/portal/precache-manifest.77b4bd1331ba05bec15d2bdd89165dc0.js",
    "service-worker.js": "/portal/service-worker.js",
    "static/css/2.13ea18da.chunk.css.map": "/portal/static/css/2.13ea18da.chunk.css.map",
    "static/css/main.9acade5a.chunk.css.map": "/portal/static/css/main.9acade5a.chunk.css.map",
    "static/js/2.1d883acc.chunk.js.LICENSE.txt": "/portal/static/js/2.1d883acc.chunk.js.LICENSE.txt",
    "static/media/eight-carousel.jpeg": "/portal/static/media/eight-carousel.191f0081.jpeg",
    "static/media/first-carousel.jpeg": "/portal/static/media/first-carousel.82ea576d.jpeg",
    "static/media/five-carousel.jpeg": "/portal/static/media/five-carousel.4f0d3c87.jpeg",
    "static/media/four-carousel.jpeg": "/portal/static/media/four-carousel.004c43f6.jpeg",
    "static/media/lambang_negara.png": "/portal/static/media/lambang_negara.598443a7.png",
    "static/media/login-removebg-preview.png": "/portal/static/media/login-removebg-preview.2a152b13.png",
    "static/media/logonle.png": "/portal/static/media/logonle.67ff3484.png",
    "static/media/agency.min.css": "/portal/static/media/map-image.f40ed5b1.png",
    "static/media/nine-carousel.jpeg": "/portal/static/media/nine-carousel.6f3621b7.jpeg",
    "static/media/nle__.png": "/portal/static/media/nle__.3a0f90e1.png",
    "static/media/styles.css": "/portal/static/media/revicons.2feb69cc.eot",
    "static/media/second-carousel.jpeg": "/portal/static/media/second-carousel.e1fe8da0.jpeg",
    "static/media/seven-carousel.jpeg": "/portal/static/media/seven-carousel.36f024da.jpeg",
    "static/media/six-carousel.jpeg": "/portal/static/media/six-carousel.17f10c17.jpeg",
    "static/media/third-carousel.jpeg": "/portal/static/media/third-carousel.d7930b69.jpeg"
  },
  "entrypoints": [
    "static/js/runtime-main.9c0d1b2d.js",
    "static/css/2.13ea18da.chunk.css",
    "static/js/2.1d883acc.chunk.js",
    "static/css/main.9acade5a.chunk.css",
    "static/js/main.a28fdbd3.chunk.js"
  ]
}